*** Life<ConwayCell> 25x25 ***

Generation = 0, Population = 134.
...*....*......*.........
.......*...*.*.....*.....
..*...*....*......*..*.**
*..*..*..*.*.............
.........*........***....
**.*..**..*.*..*.......**
.*...*......*..*..****...
..........*....*.......*.
.**.......*.*.*......*..*
.......*.....*.......*...
...........*....*........
.....*..***.**.....**...*
....**....*..............
.....***.***..*.*.*....*.
...*.*..*.*..............
..*..........*...**......
....*.*.......**...*..*..
**..**.*........*..*..*..
...*..*....*..*.....*.*..
*.*......**......*...*..*
.......*..**..*....*.*..*
......**.........*..*..*.
.......*.....*...........
*....*.........*.........
.*...*....*..*...........

Generation = 1, Population = 129.
.........................
.......*....*............
......**...*.............
..................*.*....
***...****.*.......*.....
***...*....*.........*...
***...*.......***..**.***
.**..........***...*.**..
...........*.**.......*..
...........***...........
........****.*......*....
....**...**.*............
....*..*....**.....*.....
.......**..*.............
....**.**.**......*......
...***........*...*......
.*.**.*.......****.*.....
...**..*......*....**.**.
*.*****...*.........*.**.
.........*...........***.
......******......*..****
......***...........*....
.......*.................
......*.......*..........
.........................

Generation = 2, Population = 105.
.........................
......**.................
......**.................
.*........*........*.....
*.*...***.*........**....
...*.**.*.*....*...*.***.
...*.........*..*..*...*.
*.*.........*...*..*.....
...........*...*.....**..
.........*...............
........*....*...........
....**...................
....****.**.**...........
....**...***.............
...*.*.*****.............
..*....*......*.*.**.....
......*......**.**.**....
.*.....*......*.*.***.**.
..*..**............**...*
...**......*........*....
......*...*.........*...*
..........*..........***.
........*................
.........................
.........................

Generation = 3, Population = 102.
.........................
......**.................
......**.................
.*......**.........**....
.**..**.*.**......**.**..
..*****.*.........**.***.
..***..........**.**...*.
............*..**...*.*..
.........................
.........................
.........................
....*..***..**...........
...*....**..*............
...*.....................
...*.*.*...*.............
.......*.**..**.*.***....
......**.....**.*....*...
.....*.*.....**.*......*.
..*****...........*....*.
...**.*.............**...
..........**........*.**.
.........*...........***.
......................*..
.........................
.........................

*** Life<ConwayCell> 20x18 ***

Generation = 0, Population = 79.
..........*..*.*.*
..........*....*..
.....*......**..*.
..**..**...**..*..
*....*.......*...*
..*...*...........
..****.*..........
...*..**...*.....*
..............*..*
............*..*.*
*..*.....*......*.
..*....*.*..**..*.
........*.........
..............*...
*..**....*.*...*..
..*.......**......
.**.*..*.*.*.*..*.
.....*..*.......**
....*...*.....**..
...***..........*.

Generation = 5, Population = 59.
..................
...*........**.*..
..**..........***.
.**.**............
...*..............
...*..............
....*...*.........
...*.*.*..........
....****.......**.
.....*...........*
.............*...*
............*...*.
.............**...
..........*.......
.........***......
........**.**...*.
...........*.*..**
......**....****.*
.......*.......*.*
...............**.

Generation = 10, Population = 42.
..................
..................
**............***.
**................
***...............
.****.............
.***.*............
.**.**............
...**.............
....****........**
.....**.........**
.............*....
.............*....
..................
..................
................**
.................*
.................*
.................*
................*.

*** Life<ConwayCell> 30x30 ***

Generation = 0, Population = 179.
..............*.*.........*..*
*..*..*.*............*.....*..
..*.*...............*..*......
*....*.....*...*..*..........*
.*.**.****....................
........*...............*.*..*
...............*...*...*...*..
.*..*.....*..*..........*....*
.*..........*.......*...*...**
.......*...*.......*.*.*.*.*..
......*........*........**....
..*.....***..........*..**...*
...**...**...*....*.*......*..
..**...*..*..*..........*.*.*.
............**.........*.*.*.*
........**......*......*.....*
..*...*.*.*....*....*.....*...
.*.......*.....*.*..*...*.....
*.....*......*....*....*..*.*.
*..........*..*.*.*.**..*.....
.....**......**.*...*...*.....
..*..*.......*..*............*
*.*.**....*..*...*.....*......
*..**..*..*..........**.......
......*.....*.........*.*.....
.*...*...........*....*.*.....
..*...............**...*....*.
.***..........*.............*.
*...**....*..*......*.........
......*..*...*........*..*.*..

Generation = 2, Population = 151.
..............................
..**..........................
.*.*.*.*......................
.**......*....................
....*.........................
.....**..*..............*.....
.......................*.*....
......................*......*
......................*...****
........****.......**....*****
.......*..*..........***...*..
......*...*.............*.*...
..*.*..*...............*....*.
...**..*.*..***........*.....*
...*......*.***........*.....*
..........*.............*.*.*.
......*...*....*.........***..
**.....*.*....*.**.**....**...
**....*.......*.**...*.*......
.....**.....*...**.....*.*....
....***....*....**.*.**.*.....
..*.*.......*..***..**........
.*...**.....*...*....**.......
..**...*.............***......
...**.*...............*.......
....**................*.......
...**.............**...*......
.*...*........................
.*...*........................
..**.*........................

Generation = 4, Population = 149.
...*..........................
..*.*.........................
.*...*........................
.*...*........................
..**.*........................
.......................**.....
......................*.**....
......................**.**...
........*..*.........*.*.*..*.
.......*...*........*..*.*....
......*...*.........***..*....
.....................*...*....
...**...*...**........*..*..*.
......*.*.***.*.......*..*..**
...**...*...*.**......*.......
........*....**.........*..***
........***..*.***.....**.**..
**...*.**.....****.*.*.**.....
**...*..*...........*.**.**...
...**..*....*.......*....*....
...........**.......**..*.....
..*...*....**..*.*............
.....**........***....***.....
.****..*........*.............
..**..................**......
..............................
..............................
..*.***.......................
.******.......................
.....*........................

Generation = 6, Population = 138.
..***.........................
.*...*........................
.*....*.......................
.*....*.......................
.....*..................*.....
.......................***....
......................***.*...
.....................*...**...
....................**...*....
....................*..*......
...................**..*...*..
....................*.*.......
........*....**.....*.....*.**
.......***..*.**.....*...**..*
........**...***.......*.*...*
.......**...**.........***..*.
......*.*....*...***.*........
*.*...**......**....*..*.*.*..
*.*..***.......***.....*.*.*..
.****.......*..........*.**...
....**.......*.....*....**....
.......*....*.*.....****......
.......*......**.**...***.....
****...*.......*.*............
....*...........*.............
..............................
..............................
.**...........................
.....**.......................
.***..........................

*** Life<ConwayCell> 10x50 ***

Generation = 0, Population = 89.
..........*...*..*...*................**........*.
.*....*....*.*.**....*....**.......*..*.........*.
.*.*..*.....*...*...........*....*....*...........
..*..***.....................*.*...*....*..*...*..
...**...*........*.....**.*......*......*..*...*..
*.*.......**....*....*.....**.*......**..*..**...*
.......*.*................*..*.................**.
.....**....*.......*...............*......*.....*.
*.....*........*.*..*...*.*.....*.................
............................*...**.......*....*...

Generation = 10, Population = 54.
..........***....*...................*...*........
.........*...*...*.........**........*....*.......
.........*.......*.........**.........*....***....
..........*...........................*....**.....
......................................*..*..*.....
......*...............................***..**.....
......*....................................***..**
......*....................................*...**.
................................**..........****..
................................**...........**...

*** Life<ConwayCell> 30x30 ***

Generation = 0, Population = 255.
.....*...*.**.*...*.*...*..*.*
..*...*..*...*.*.*.*......*.**
..*......*..*....**..*.*.***..
...*...*.........*............
.**.*.*..*..*....*.....*.....*
.**...*.*.*.*...*..........*..
.**.*..*..*........*......***.
.*..*.*..**.......*..*..***..*
.....*...............*...*....
*..**.*.....**.....**.....*...
..*.*..**.......*...........**
*.**..*..*.*....*..*..*.......
..*......*.*.**....***.....*.*
*.*..**........*..*...***..**.
.*.........*.....*.....*...*..
..*.****.*.*.***.*.*......*.*.
*.*...**....*.....*...**.*.**.
...*.****...................*.
.....**....*...*.*.*......**..
.......*.*.....*......*.*.**.*
*.*.*......**......*..***..*..
...*...........*..*.*...*...*.
***.*.*.**...*.......**..**...
.....*..**...*.....*.*.....**.
..*.**.*..*.*...*........**..*
.*..*.**...*.*......*..**.....
...*.*.............*...**....*
....*..*.**..*...**.*....*.*..
...*.*.....*.*..*........*....
....*.....*...*..*...*..*...*.

Generation = 1, Population = 264.
..........*.***...**.......*.*
........**.*.**.**.**...*....*
..**....*........*.......****.
.*.*....*.......**....*.*.*...
.*...**.**.*....**............
*.....*.*.*...............**..
*.....***.*.................*.
.****.*..**.........*...*...*.
...*..*............*.*..*.....
...**.**............*.........
..*.*.***...*......**.........
..*....*.*..*..*...*.*.......*
..*..**.....*.**..****.....*..
..*.......*.*.*...*******.**..
.****..*..*.*..*.*....***.*...
..**.*.**.**.**.**....***.*.*.
.**.........***...*.......*.**
....*...*.........*.........*.
....**..........*........**...
.....**...***...*.*...*.*.....
...*...............*.**.*.**..
*...**......*......**...*.**..
.*****.***....*....*.**..**.*.
..*.......*.**......***....**.
...**..*.*****......*...*****.
..*....*...**..........*......
...*.*.**.*.*.....***..*.*....
...*.**...*.*....***.....**...
...*.*...*.****.*.*.....***...
....*.........................

Generation = 2, Population = 264.
.........****.**.****.......*.
........****..****.**....*...*
..**...**......*.......**.***.
.*.**...*.........*.......*...
***..**.*.*.....**.......***..
**........**...............*..
*.**..*.*.**................*.
.****.*.***.........*.........
......*............*.*........
..*.*...*............*........
..*.*..............*.*........
.**........**.**.....*........
.***..*.....*.**.......*..***.
....***.....*.*.**......*.**..
.*..*.***.*.*..*.*.**.....*...
......*****.....***...*.*.*.**
.**.*..***.**.**..*....*.*..**
...***.......*...*.......**.**
....*.*....*.............*....
.....**....*.....*...**.*..*..
......*.....*.....**.**.*.**..
.*...**.*.........**....*...*.
.**..**.**.**......*..**.*..*.
.*...***......*....*..***....*
..**....**..........*.*****.*.
..*....*............*..*...*..
..**.*.****.**...*..*....**...
..**.*.**.*.........*.........
...*.**...****....**....*.*...
....*.......**...........*....

Generation = 3, Population = 239.
........*...***..*..*.........
.......*....**...*..*...***..*
..***..*..*...**.***....*.***.
*...***.*.......**......*...*.
...***.*..**.....*.......*.*..
...*.**....................**.
*...**..*.....................
.*..*.*.*.**........*.........
.*..*...*............*........
.....*...............**.......
..*..................**.......
...........**.**....*.*....*..
.*.**.*.....*............**.*.
.*..*.......*.*..**.........*.
....*.....*..*.*...*...*..*.*.
.***........***........**.*.**
..*.*......*****..*....*......
..*...***.**.**..........*****
...*..*.....*...........**.**.
......**...**.....*.***.*..*..
.................*.*.**.*.***.
.**.....**.**........*..*.*.*.
***.*...**.........**.*..*..**
.*.***....*........**.....****
.***....*..........**....****.
.*..*.**..*........**.**...*..
.*........**.......***....*...
.....*............*.*.....*...
..**.***.**..*.....*.....*....
....**.......*...........*....

