*** Life<Cell> 10x10 ***

Generation = 0, Population = 38.
------0--0
0-0-----00
0--0-0000-
00---000--
----00-0-0
0----0----
-000-00-00
-----0--00
----0-----
-000---0--

Generation = 10, Population = 35.
.1**...1..
..1.-...1.
.*..1.....
.*..*..*01
01-*....1*
.*1....-.-
*****.....
-*.--*.***
-..*-0...-
.....1-**-

Generation = 20, Population = 36.
..***..-..
******..-.
*....**...
*....***.-
*..*......
*.*..**-..
**.****...
-..1*..*..
-...-*..*.
.....***..

Generation = 30, Population = 10.
.......-..
........-.
..........
..........
..........
***.......
*.*.......
-*.-.**...
....*..*..
..........

Generation = 40, Population = 10.
.......-..
........-.
..........
..........
.*........
*.*.......
*.*.......
-*.-.**...
.....**...
..........

Generation = 50, Population = 10.
.......-..
........-.
..........
..........
.*........
*.*.......
*.*.......
-*.-.**...
.....**...
..........

*** Life<Cell> 30x45 ***

Generation = 0, Population = 95.
------------------0-----------------0--------
-----0-0------------0--------------0---------
-----0-------0--------0------------0--------0
-----00----0-----------------0------0--------
--------------0------------------------------
--0---------------------------0--------------
-----0--0-----------------------------0------
----------0----------------------0-----------
----------0--------------0---0--------00-----
-0--------------0-0---0----------------------
------------------------0--------------0-----
--------0------------------------------------
0--0-----------0-----------------------------
--0-------------0-----------------------0----
----0---------0----0--00----0-------------0--
0---------0---0----------------------------0-
------------0------------------0----0-00-----
--00-----------------0----0-0-----------0----
---------0-----------------------------------
-------------------------------------0-------
----------------------------------0----------
--------------------0-0------0---------------
-0---------0---------------------------------
-0-----------------------0-----0-------------
0---------------0------------0----0----------
---------------------------------------------
-0----0-----------0----------------0---------
-----------0----0-------00-0-----------------
--------------------00-----------------------
------------0--------------0-0-------0-----0-

Generation = 200, Population = 57.
-...................*........................
.........**.........*.......................-
.........**.........*........................
.............................................
......................***....................
.............................................
.............................................
.............................................
.............................................
................**.........................*-
............**..*.*.......................*.*
....**......**...*.........................**
...*.*........................**.............
.....*........................**.............
.............*...........................-...
............*.*..............................
............*.*..............................
.............*...............................
.............................................
.............................................
.**..........................................
.......................**....................
.......................**.....**............-
..............................**.............
...**........................................
...**.................**.....................
......................**.....................
................................-............
.................................-...........
.............--..............................

Generation = 400, Population = 50.
-...................*........................
....................*.......................-
....................*........................
........**...................................
........**............***....................
.............................................
.............................................
.............................................
.............................................
................**.........................*-
............**..*.*.......................*.*
............**...*.........................**
..............................**.............
..............................**.............
.............*...........................-...
............*.*..............................
............*.*..............................
.............*...............................
.............................................
.............................................
.............................................
.......................**....................
.......................**.....**............-
..............................**.............
...**........................................
...**.................**.....................
......................**.....................
................................-............
.................................-...........
.............--..............................

Generation = 600, Population = 50.
-...................*........................
....................*.......................-
....................*........................
........**...................................
........**............***....................
.............................................
.............................................
.............................................
.............................................
................**.........................*-
............**..*.*.......................*.*
............**...*.........................**
..............................**.............
..............................**.............
.............*...........................-...
............*.*..............................
............*.*..............................
.............*...............................
.............................................
.............................................
.............................................
.......................**....................
.......................**.....**............-
..............................**.............
...**........................................
...**.................**.....................
......................**.....................
................................-............
.................................-...........
.............--..............................

Generation = 800, Population = 50.
-...................*........................
....................*.......................-
....................*........................
........**...................................
........**............***....................
.............................................
.............................................
.............................................
.............................................
................**.........................*-
............**..*.*.......................*.*
............**...*.........................**
..............................**.............
..............................**.............
.............*...........................-...
............*.*..............................
............*.*..............................
.............*...............................
.............................................
.............................................
.............................................
.......................**....................
.......................**.....**............-
..............................**.............
...**........................................
...**.................**.....................
......................**.....................
................................-............
.................................-...........
.............--..............................

Generation = 1000, Population = 50.
-...................*........................
....................*.......................-
....................*........................
........**...................................
........**............***....................
.............................................
.............................................
.............................................
.............................................
................**.........................*-
............**..*.*.......................*.*
............**...*.........................**
..............................**.............
..............................**.............
.............*...........................-...
............*.*..............................
............*.*..............................
.............*...............................
.............................................
.............................................
.............................................
.......................**....................
.......................**.....**............-
..............................**.............
...**........................................
...**.................**.....................
......................**.....................
................................-............
.................................-...........
.............--..............................

Generation = 1200, Population = 50.
-...................*........................
....................*.......................-
....................*........................
........**...................................
........**............***....................
.............................................
.............................................
.............................................
.............................................
................**.........................*-
............**..*.*.......................*.*
............**...*.........................**
..............................**.............
..............................**.............
.............*...........................-...
............*.*..............................
............*.*..............................
.............*...............................
.............................................
.............................................
.............................................
.......................**....................
.......................**.....**............-
..............................**.............
...**........................................
...**.................**.....................
......................**.....................
................................-............
.................................-...........
.............--..............................

Generation = 1400, Population = 50.
-...................*........................
....................*.......................-
....................*........................
........**...................................
........**............***....................
.............................................
.............................................
.............................................
.............................................
................**.........................*-
............**..*.*.......................*.*
............**...*.........................**
..............................**.............
..............................**.............
.............*...........................-...
............*.*..............................
............*.*..............................
.............*...............................
.............................................
.............................................
.............................................
.......................**....................
.......................**.....**............-
..............................**.............
...**........................................
...**.................**.....................
......................**.....................
................................-............
.................................-...........
.............--..............................

Generation = 1600, Population = 50.
-...................*........................
....................*.......................-
....................*........................
........**...................................
........**............***....................
.............................................
.............................................
.............................................
.............................................
................**.........................*-
............**..*.*.......................*.*
............**...*.........................**
..............................**.............
..............................**.............
.............*...........................-...
............*.*..............................
............*.*..............................
.............*...............................
.............................................
.............................................
.............................................
.......................**....................
.......................**.....**............-
..............................**.............
...**........................................
...**.................**.....................
......................**.....................
................................-............
.................................-...........
.............--..............................

Generation = 1800, Population = 50.
-...................*........................
....................*.......................-
....................*........................
........**...................................
........**............***....................
.............................................
.............................................
.............................................
.............................................
................**.........................*-
............**..*.*.......................*.*
............**...*.........................**
..............................**.............
..............................**.............
.............*...........................-...
............*.*..............................
............*.*..............................
.............*...............................
.............................................
.............................................
.............................................
.......................**....................
.......................**.....**............-
..............................**.............
...**........................................
...**.................**.....................
......................**.....................
................................-............
.................................-...........
.............--..............................

Generation = 2000, Population = 50.
-...................*........................
....................*.......................-
....................*........................
........**...................................
........**............***....................
.............................................
.............................................
.............................................
.............................................
................**.........................*-
............**..*.*.......................*.*
............**...*.........................**
..............................**.............
..............................**.............
.............*...........................-...
............*.*..............................
............*.*..............................
.............*...............................
.............................................
.............................................
.............................................
.......................**....................
.......................**.....**............-
..............................**.............
...**........................................
...**.................**.....................
......................**.....................
................................-............
.................................-...........
.............--..............................

*** Life<Cell> 40x10 ***

Generation = 0, Population = 124.
------0--0
0----0----
-----0-00-
00-0--0---
0--0000000
-0--------
00----0--0
------0-00
-0------00
-00----0--
---------0
0-0-----0-
0----00--0
-0--0-0-0-
-------0-0
----------
----00----
-000-0----
-----0--0-
0-000-0-0-
--00--0--0
0--------0
0--000--0-
-0----0--0
-------00-
-----0---0
--00-00-0-
-0---00---
-0--000---
--00---0--
---0-0--0-
0------0--
-0--------
0----000--
-0--0-0-00
0--00--0--
-0-0----0-
--0---000-
----00----
-0-0------

Generation = 50, Population = 58.
..........
..........
..*.......
..*.......
..*.....-.
......-...
..........
..........
..........
..........
..........
.**.......
.**.......
........-.
..........
..........
......*...
......**..
.....*..*.
......**..
......*...
..........
.....**...
.....***..
.....*..**
.......**.
.......*..
..........
........-.
...*.***..
..***.....
..***.*...
.....***..
......**..
.-...**...
.....*....
**........
...***..**
.*..**..**
...*......

Generation = 100, Population = 7.
..........
..........
..*.......
..*.......
..*.....-.
......-...
..........
..........
..........
..........
..........
.**.......
.**.......
........-.
..........
..........
..........
..........
..........
..........
..........
..........
..........
..........
..........
..........
..........
..........
........-.
..........
..........
..........
..........
..........
.-........
..........
..........
..........
..........
..........

Generation = 150, Population = 7.
..........
..........
..*.......
..*.......
..*.....-.
......-...
..........
..........
..........
..........
..........
.**.......
.**.......
........-.
..........
..........
..........
..........
..........
..........
..........
..........
..........
..........
..........
..........
..........
..........
........-.
..........
..........
..........
..........
..........
.-........
..........
..........
..........
..........
..........

Generation = 200, Population = 7.
..........
..........
..*.......
..*.......
..*.....-.
......-...
..........
..........
..........
..........
..........
.**.......
.**.......
........-.
..........
..........
..........
..........
..........
..........
..........
..........
..........
..........
..........
..........
..........
..........
........-.
..........
..........
..........
..........
..........
.-........
..........
..........
..........
..........
..........

Generation = 250, Population = 7.
..........
..........
..*.......
..*.......
..*.....-.
......-...
..........
..........
..........
..........
..........
.**.......
.**.......
........-.
..........
..........
..........
..........
..........
..........
..........
..........
..........
..........
..........
..........
..........
..........
........-.
..........
..........
..........
..........
..........
.-........
..........
..........
..........
..........
..........

Generation = 300, Population = 7.
..........
..........
..*.......
..*.......
..*.....-.
......-...
..........
..........
..........
..........
..........
.**.......
.**.......
........-.
..........
..........
..........
..........
..........
..........
..........
..........
..........
..........
..........
..........
..........
..........
........-.
..........
..........
..........
..........
..........
.-........
..........
..........
..........
..........
..........

Generation = 350, Population = 7.
..........
..........
..*.......
..*.......
..*.....-.
......-...
..........
..........
..........
..........
..........
.**.......
.**.......
........-.
..........
..........
..........
..........
..........
..........
..........
..........
..........
..........
..........
..........
..........
..........
........-.
..........
..........
..........
..........
..........
.-........
..........
..........
..........
..........
..........

Generation = 400, Population = 7.
..........
..........
..*.......
..*.......
..*.....-.
......-...
..........
..........
..........
..........
..........
.**.......
.**.......
........-.
..........
..........
..........
..........
..........
..........
..........
..........
..........
..........
..........
..........
..........
..........
........-.
..........
..........
..........
..........
..........
.-........
..........
..........
..........
..........
..........

Generation = 450, Population = 7.
..........
..........
..*.......
..*.......
..*.....-.
......-...
..........
..........
..........
..........
..........
.**.......
.**.......
........-.
..........
..........
..........
..........
..........
..........
..........
..........
..........
..........
..........
..........
..........
..........
........-.
..........
..........
..........
..........
..........
.-........
..........
..........
..........
..........
..........

Generation = 500, Population = 7.
..........
..........
..*.......
..*.......
..*.....-.
......-...
..........
..........
..........
..........
..........
.**.......
.**.......
........-.
..........
..........
..........
..........
..........
..........
..........
..........
..........
..........
..........
..........
..........
..........
........-.
..........
..........
..........
..........
..........
.-........
..........
..........
..........
..........
..........

*** Life<Cell> 10x15 ***

Generation = 0, Population = 55.
---00-0--0-----
-----0-00-----0
00-0-0-0---0-00
-00--0----00--0
0---0--0----000
0---------0---0
-0-0-00-00--0--
-000--0--0000--
-----00--0----0
-0-0---0----0-0

Generation = 20, Population = 50.
......1-*.***.*
.*-.........*.*
*......**..*...
*.....*.*.**..-
*-..**....**.-.
*..*..**..***..
.*....***..**..
........**-....
.*..*.-*..-.*..
..**.1**.0*.*..

Generation = 40, Population = 21.
...............
...............
...............
..............-
...........***.
....*......**.*
....*.........*
*.............*
*...*.......*.*
.****.......**.

Generation = 60, Population = 8.
...............
...............
...............
..............-
...............
...............
...............
...............
.**.........**.
.**.........**.

Generation = 80, Population = 8.
...............
...............
...............
..............-
...............
...............
...............
...............
.**.........**.
.**.........**.

Generation = 100, Population = 8.
...............
...............
...............
..............-
...............
...............
...............
...............
.**.........**.
.**.........**.

*** Life<Cell> 100x1 ***

Generation = 0, Population = 24.
-
-
-
-
-
-
-
-
-
-
-
0
-
0
-
0
-
-
-
-
-
0
0
-
-
-
-
-
-
0
-
-
-
-
-
-
-
-
-
-
0
-
-
-
-
-
-
-
-
0
-
-
-
-
-
-
0
-
-
-
-
-
0
0
-
-
-
0
-
0
-
-
0
-
-
-
-
0
-
-
-
-
0
0
0
-
0
-
-
-
0
0
-
0
-
-
0
-
0
-

Generation = 10, Population = 20.
-
0
-
0
-
-
-
0
-
0
-
0
1
-
-
1
-
-
1
.
.
.
.
.
.
.
-
1
0
.
.
0
-
-
.
.
-
1
-
-
-
1
-
.
*
*
.
-
-
-
.
-
.
.
1
-
0
-
.
-
.
.
-
.
-
.
.
-
.
.
.
.
-
0
.
.
.
.
.
.
-
.
.
-
1
.
.
.
.
.
.
.
1
-
.
.
-
.
-
-

Generation = 20, Population = 10.
-
-
1
-
*
.
-
1
*
1
1
.
.
-
.
-
.
-
.
.
.
.
.
.
.
.
.
.
.
.
.
-
-
-
.
.
-
-
-
-
-
-
-
.
.
.
.
-
-
-
.
-
.
.
1
-
-
-
.
-
.
.
-
.
-
.
.
-
.
.
.
.
-
0
.
.
.
.
.
.
-
.
.
-
1
.
.
.
.
.
.
.
1
-
.
.
-
.
-
-

*** Life<Cell> 50x10 ***

Generation = 0, Population = 163.
-----00---
0---------
------0--0
-0-------0
---0--0-00
-0--00--00
00-0------
----------
-----00---
-0-0--00-0
--00------
0-0-0---0-
0--00--0--
--0---000-
-------00-
0--------0
----------
-00--00--0
-0---0--0-
--0-0-00-0
---00-0-0-
----00-0-0
0----00-00
-0----0---
00-000-0--
-----0-0--
--0-0-0-00
0----0----
-0---0--00
0-000--000
----0-----
0----0-0--
00---0--00
----0-0---
0---0--00-
---0------
000--0-0--
--0---0-0-
----0-----
-00-------
--0-0000-0
0---------
--0-0--0--
00-0-00---
0-0-0-0--0
0-----0---
-0-0----00
-000---0--
00000-----
-0-0--0---

Generation = 12, Population = 199.
.**......*
***0.-1..*
*-..1-..0-
*...-....*
****...--.
*.-*.*..-.
.*0.--*...
.-*-***...
1.***.1.--
.**.*.*.0.
.*-0-*.--.
.*.*..*.*.
.*.*.10*..
.*--*.*-.*
.*.*.-**.*
.*.-..-.-*
1.....*..0
..*1.-.***
-.*-*1--.*
*.*0.*-*.*
*.*..*.*-*
*....1.-0*
01.1.-.*.*
*.-*......
.*.***.*..
*.**1.-*..
.*.*.**-..
10.-..1.*.
-1*.-.*0*1
.....*-.1.
-**..**..-
.1....*---
.*.0*.....
-1.-*..-..
*-**.11..1
*..--**..*
*.-1.*1..*
*.*.--01..
-.***--.10
1*.*0.....
.0...--...
.1*1-..1.*
-**-*-.*.1
....*.....
--....**-1
-****.**.-
0.*.0...**
-..**0-.**
.*..*...*.
.***-...*1

Generation = 24, Population = 137.
....*.....
...**.....
..**......
***.1.....
*..*...1*.
*****.**..
**..*..*..
**....*...
......-.*-
..........
.*.***.-1.
.*..**....
.*...*....
..1.......
.........*
......-.**
-........0
.......*.*
-.....**.*
.....***.*
........-.
....*..-..
.***.**...
*.*.......
***....*..
.......*.*
.......*.*
.***......
*..*1..-..
*..**.....
.**.***...
....**.-11
.**..*.***
.***.*.*.*
.*****.**.
.....***..
..-.......
....-1....
.....***.-
......*...
.-..*-*.*.
....*****.
....*..*..
**....*...
*........-
........*-
.......*.*
.....-.*.*
..**....*.
..**......

Generation = 36, Population = 102.
..*.......
.*....***.
.**...*...
..*.......
.......1..
.......*.*
.......*..
..........
..*......-
.*.*......
...*...--.
.***......
.*........
..*.......
...*......
.***......
-.........
.....*..**
-..**...**
..*....**.
..*.***.-.
*...*..-..
..........
**....*...
.**..**...
.*.**.....
..........
..*.*.*...
......*-*.
..........
.......**.
.......**.
...**.....
...***.**.
....**.**.
.....*.**.
..-.*..**.
....-*.**.
.....****-
......*.*.
.-.....*.*
.......*.*
........*.
..........
.........-
........*-
.......*.*
.....-.*.*
..**....*.
..**......

Generation = 48, Population = 72.
......**..
......**..
..........
..........
..........
..........
..........
..*.......
.*.*.....-
*.........
.*.*...--.
...*.**...
....*.....
..........
..........
..........
-.........
.....**...
-...*.....
......*...
.**....*-.
...*..*.*.
.......**.
..........
..........
..........
..........
........*.
.......**.
.........*
.....*..*.
.....*..*.
.......*..
......***.
......***.
..*....**.
.*.*..*.*.
*..*....*.
**.*...*..
....*.....
.-.**.....
....*..*..
....*.....
.....*...*
......*..*
.........-
........*.
.....-..*.
..**....*.
..**......

Generation = 60, Population = 73.
......**..
......**..
..........
..........
..........
..**......
.****.....
.*..*.....
.*.*.....-
.**.......
*..*..*--.
.*.*.*..*.
....**..*.
..**..*.*.
..........
..........
-.........
..........
-......**.
.......***
.....*.*.*
.....***.*
......**..
..........
..........
......*...
.....***..
....*..**.
.......**.
......**.*
......**.*
....*.....
....**....
.....*..*.
.......*..
..........
**........
**........
..........
..........
.-........
..........
..........
..........
..........
.........-
..........
.....-....
..**......
..**......